lab3/simulation/qsim/lab3.msim.vcd
$comment
	File created using the following command:
		vcd file lab3.msim.vcd -direction
$end
$date
	Tue Mar 20 23:19:29 2018
$end
$version
	ModelSim Version 10.5b
$end
$timescale
	1ps
$end

$scope module mux16_to_1_vhd_vec_tst $end
$var wire 1 ! data [15] $end
$var wire 1 " data [14] $end
$var wire 1 # data [13] $end
$var wire 1 $ data [12] $end
$var wire 1 % data [11] $end
$var wire 1 & data [10] $end
$var wire 1 ' data [9] $end
$var wire 1 ( data [8] $end
$var wire 1 ) data [7] $end
$var wire 1 * data [6] $end
$var wire 1 + data [5] $end
$var wire 1 , data [4] $end
$var wire 1 - data [3] $end
$var wire 1 . data [2] $end
$var wire 1 / data [1] $end
$var wire 1 0 data [0] $end
$var wire 1 1 output $end
$var wire 1 2 sel [3] $end
$var wire 1 3 sel [2] $end
$var wire 1 4 sel [1] $end
$var wire 1 5 sel [0] $end

$scope module i1 $end
$var wire 1 6 gnd $end
$var wire 1 7 vcc $end
$var wire 1 8 unknown $end
$var wire 1 9 devoe $end
$var wire 1 : devclrn $end
$var wire 1 ; devpor $end
$var wire 1 < ww_devoe $end
$var wire 1 = ww_devclrn $end
$var wire 1 > ww_devpor $end
$var wire 1 ? ww_data [15] $end
$var wire 1 @ ww_data [14] $end
$var wire 1 A ww_data [13] $end
$var wire 1 B ww_data [12] $end
$var wire 1 C ww_data [11] $end
$var wire 1 D ww_data [10] $end
$var wire 1 E ww_data [9] $end
$var wire 1 F ww_data [8] $end
$var wire 1 G ww_data [7] $end
$var wire 1 H ww_data [6] $end
$var wire 1 I ww_data [5] $end
$var wire 1 J ww_data [4] $end
$var wire 1 K ww_data [3] $end
$var wire 1 L ww_data [2] $end
$var wire 1 M ww_data [1] $end
$var wire 1 N ww_data [0] $end
$var wire 1 O ww_sel [3] $end
$var wire 1 P ww_sel [2] $end
$var wire 1 Q ww_sel [1] $end
$var wire 1 R ww_sel [0] $end
$var wire 1 S ww_output $end
$var wire 1 T \~QUARTUS_CREATED_GND~I_combout\ $end
$var wire 1 U \sel[2]~input_o\ $end
$var wire 1 V \sel[0]~input_o\ $end
$var wire 1 W \data[1]~input_o\ $end
$var wire 1 X \sel[1]~input_o\ $end
$var wire 1 Y \data[2]~input_o\ $end
$var wire 1 Z \data[0]~input_o\ $end
$var wire 1 [ \data[3]~input_o\ $end
$var wire 1 \ \final_mux|extra|f~0_combout\ $end
$var wire 1 ] \data[12]~input_o\ $end
$var wire 1 ^ \data[14]~input_o\ $end
$var wire 1 _ \data[13]~input_o\ $end
$var wire 1 ` \data[15]~input_o\ $end
$var wire 1 a \final_mux|extra|f~3_combout\ $end
$var wire 1 b \data[4]~input_o\ $end
$var wire 1 c \data[7]~input_o\ $end
$var wire 1 d \data[6]~input_o\ $end
$var wire 1 e \data[5]~input_o\ $end
$var wire 1 f \final_mux|extra|f~2_combout\ $end
$var wire 1 g \sel[3]~input_o\ $end
$var wire 1 h \data[8]~input_o\ $end
$var wire 1 i \data[11]~input_o\ $end
$var wire 1 j \data[9]~input_o\ $end
$var wire 1 k \data[10]~input_o\ $end
$var wire 1 l \final_mux|extra|f~1_combout\ $end
$var wire 1 m \final_mux|extra|f~4_combout\ $end
$var wire 1 n \ALT_INV_sel[2]~input_o\ $end
$var wire 1 o \ALT_INV_sel[3]~input_o\ $end
$var wire 1 p \ALT_INV_data[15]~input_o\ $end
$var wire 1 q \ALT_INV_data[13]~input_o\ $end
$var wire 1 r \ALT_INV_data[14]~input_o\ $end
$var wire 1 s \ALT_INV_data[12]~input_o\ $end
$var wire 1 t \ALT_INV_data[7]~input_o\ $end
$var wire 1 u \ALT_INV_data[5]~input_o\ $end
$var wire 1 v \ALT_INV_data[6]~input_o\ $end
$var wire 1 w \ALT_INV_data[4]~input_o\ $end
$var wire 1 x \ALT_INV_data[11]~input_o\ $end
$var wire 1 y \ALT_INV_data[9]~input_o\ $end
$var wire 1 z \ALT_INV_data[10]~input_o\ $end
$var wire 1 { \ALT_INV_data[8]~input_o\ $end
$var wire 1 | \ALT_INV_sel[0]~input_o\ $end
$var wire 1 } \ALT_INV_sel[1]~input_o\ $end
$var wire 1 ~ \ALT_INV_data[3]~input_o\ $end
$var wire 1 !! \ALT_INV_data[1]~input_o\ $end
$var wire 1 "! \ALT_INV_data[2]~input_o\ $end
$var wire 1 #! \ALT_INV_data[0]~input_o\ $end
$var wire 1 $! \final_mux|extra|ALT_INV_f~3_combout\ $end
$var wire 1 %! \final_mux|extra|ALT_INV_f~2_combout\ $end
$var wire 1 &! \final_mux|extra|ALT_INV_f~1_combout\ $end
$var wire 1 '! \final_mux|extra|ALT_INV_f~0_combout\ $end
$upscope $end
$upscope $end
$enddefinitions $end
#0
$dumpvars
01
06
17
x8
19
1:
1;
1<
1=
1>
0S
xT
1U
1V
0W
1X
0Y
0Z
1[
1\
1]
0^
1_
0`
0a
0b
0c
1d
0e
0f
1g
0h
1i
1j
0k
1l
0m
0n
0o
1p
0q
1r
0s
1t
1u
0v
1w
0x
0y
1z
1{
0|
0}
0~
1!!
1"!
1#!
1$!
1%!
0&!
0'!
0!
0"
1#
1$
1%
0&
1'
0(
0)
1*
0+
0,
1-
0.
0/
00
12
13
14
15
0?
0@
1A
1B
1C
0D
1E
0F
0G
1H
0I
0J
1K
0L
0M
0N
1O
1P
1Q
1R
$end
#2000
1!
0$
0%
0'
1)
0*
1+
1,
1J
1I
0H
1G
0E
0C
0B
1?
1`
0]
0i
0j
1c
0d
1e
1b
0w
0u
1v
0t
1y
1x
1s
0p
1a
0l
1f
0%!
1&!
0$!
1m
1S
11
#4000
0!
1$
1'
1*
0,
1(
0J
1H
1F
1E
1B
0?
0`
1]
1j
1h
1d
0b
1w
0v
0{
0y
0s
1p
0a
1$!
0m
0S
01
#6000
1!
0*
0(
1%
0)
0+
1"
0#
1.
1/
10
1N
1M
1L
0I
0H
0G
0F
1C
0A
1@
1?
1`
1^
0_
1i
0h
0c
0d
0e
1Y
1W
1Z
0#!
0!!
0"!
1u
1v
1t
1{
0x
1q
0r
0p
1a
1l
0f
1%!
0&!
0$!
1m
1S
11
#8000
1(
0%
1#
00
0$
1,
1&
0-
0N
0K
1J
1F
1D
0C
0B
1A
1_
0]
0i
1k
1h
1b
0[
0Z
1#!
1~
0w
0{
0z
1x
1s
0q
0l
0\
1'!
1&!
#10000
1%
10
1*
1+
0.
05
1N
0L
1I
1H
1C
0R
0V
1i
1d
1e
0Y
1Z
0#!
1"!
0u
0v
0x
1|
1l
1f
0%!
0&!
#12000
0%
0*
1.
1$
0,
0&
1-
1L
1K
0J
0H
0D
0C
1B
1]
0i
0k
0d
0b
1[
1Y
0"!
0~
1w
1v
1z
1x
0s
0l
0f
1\
0'!
1%!
1&!
#14000
0.
1&
00
0(
0#
0"
0/
0N
0M
0L
0F
1D
0A
0@
0^
0_
1k
0h
0Y
0W
0Z
1#!
1!!
1"!
1{
0z
1q
1r
0a
1l
0\
1'!
0&!
1$!
0m
0S
01
#16000
0&
1(
1#
1"
1%
1*
0$
0-
0+
0!
0'
0K
0I
1H
1F
0E
0D
1C
0B
1A
1@
0?
0`
1^
1_
0]
1i
0k
0j
1h
1d
0e
0[
1~
1u
0v
0{
1y
1z
0x
1s
0q
0r
1p
1a
0l
1f
0%!
1&!
0$!
1m
1S
11
#18000
0#
0*
1$
1-
1+
1!
1'
1.
1L
1K
1I
0H
1E
1B
0A
1?
1`
0_
1]
1j
0d
1e
1[
1Y
0"!
0~
0u
1v
0y
0s
1q
0p
0f
1\
0'!
1%!
#20000
1#
1*
0$
0+
0'
1&
10
1/
1,
15
04
1N
1M
1J
0I
1H
0E
1D
0B
1A
1R
0Q
0X
1V
1_
0]
1k
0j
1d
0e
1b
1W
1Z
0#!
0!!
0w
1u
0v
1y
0z
1s
0q
0|
1}
#22000
0/
0-
0%
1)
0M
0K
1G
0C
0i
1c
0[
0W
1!!
1~
0t
1x
0\
1'!
#24000
1-
1%
0*
1$
00
0.
0N
0L
1K
0H
1C
1B
1]
1i
0d
1[
0Y
0Z
1#!
1"!
0~
1v
0x
0s
#26000
0-
0%
0$
10
1.
1+
0(
0"
1N
1L
0K
1I
0F
0C
0B
0@
0^
0]
0i
0h
1e
0[
1Y
1Z
0#!
0"!
1~
0u
1{
1x
1s
1r
1f
0%!
#28000
1-
1%
00
0.
0+
1(
0&
0!
0N
0L
1K
0I
1F
0D
1C
0?
0`
1i
0k
1h
0e
1[
0Y
0Z
1#!
1"!
0~
1u
0{
1z
0x
1p
0f
1%!
#30000
0-
10
1+
0(
1"
1*
1/
0)
0,
1N
1M
0K
0J
1I
1H
0G
0F
1@
1^
0h
0c
1d
1e
0b
0[
1W
1Z
0#!
0!!
1~
1w
0u
0v
1t
1{
0r
1f
1\
0'!
0%!
#32000
00
1(
0"
0*
1,
0%
1!
1'
0N
1J
0H
1F
1E
0C
0@
1?
1`
0^
0i
1j
1h
0d
1b
0Z
1#!
0w
1v
0{
0y
1x
1r
0p
1l
0&!
#34000
0(
0!
1-
1)
0#
1K
1G
0F
0A
0?
0`
0_
0h
1c
1[
0~
0t
1{
1q
1p
0a
1$!
0m
0S
01
#36000
1!
0)
1#
10
1*
0'
0+
0/
1N
0M
0I
1H
0G
0E
1A
1?
1`
1_
0j
0c
1d
0e
0W
1Z
0#!
1!!
1u
0v
1t
1y
0q
0p
1a
0l
0f
0\
1'!
1%!
1&!
0$!
1m
1S
11
#38000
1)
0*
1'
1(
1"
0,
1.
1&
1L
0J
0H
1G
1F
1E
1D
1@
1^
1k
1j
1h
1c
0d
0b
1Y
0"!
1w
1v
0t
0{
0y
0z
0r
1l
0&!
#40000
0.
00
0-
1$
05
0N
0L
0K
1B
0R
0V
1]
0[
0Y
0Z
1#!
1"!
1~
0s
1|
#42000
10
1-
1*
0(
1,
0&
0!
0#
1N
1K
1J
1H
0F
0D
0A
0?
0`
0_
0k
0h
1d
1b
1[
1Z
0#!
0~
0w
0v
1{
1z
1q
1p
0l
1f
1\
0'!
0%!
1&!
#44000
0-
1&
1.
0$
0)
1%
1L
0K
0G
1D
1C
0B
0]
1i
1k
0c
0[
1Y
0"!
1~
1t
0z
0x
1s
0a
1$!
0m
0S
01
#46000
0.
1$
1)
0%
0,
1#
0L
0J
1G
0C
1B
1A
1_
1]
0i
1c
0b
0Y
1"!
1w
0t
1x
0s
0q
1a
0f
1%!
0$!
1m
1S
11
#48000
0$
0#
1!
0"
1+
1/
1M
1I
0B
0A
0@
1?
1`
0^
0_
0]
1e
1W
0!!
0u
1s
1q
1r
0p
0a
1$!
0m
0S
01
#50000
1$
1#
0!
0+
0/
1.
0)
1%
1(
15
14
03
0M
1L
0I
0G
1F
1C
1B
1A
0?
1R
1Q
0P
0U
1X
1V
0`
1_
1]
1i
1h
0c
0e
1Y
0W
1!!
0"!
1u
1t
0{
0x
0s
0q
1p
0|
0}
1n
1l
0\
1'!
0&!
1m
1S
11
#52000
0$
1!
1+
1)
0%
0(
1"
1,
1-
0*
1K
1J
1I
0H
1G
0F
0C
0B
1@
1?
1`
1^
0]
0i
0h
1c
0d
1e
1b
1[
0~
0w
0u
1v
0t
1{
1x
1s
0r
0p
1a
0l
1f
1\
0'!
0%!
1&!
0$!
0m
0S
01
#54000
0!
0)
1%
1(
0,
0-
1*
0.
0&
00
0N
0L
0K
0J
1H
0G
1F
0D
1C
0?
0`
1i
0k
1h
0c
1d
0b
0[
0Y
0Z
1#!
1"!
1~
1w
0v
1t
0{
1z
0x
1p
0a
1l
0f
0\
1'!
1%!
0&!
1$!
1m
1S
11
#56000
1!
0(
1,
1.
1$
1/
1M
1L
1J
0F
1B
1?
1`
1]
0h
1b
1Y
1W
0!!
0"!
0w
1{
0s
0p
1a
0$!
#58000
0!
0,
0.
0/
1)
0%
10
0"
1N
0M
0L
0J
1G
0C
0@
0?
0`
0^
0i
1c
0b
0Y
0W
1Z
0#!
1!!
1"!
1w
0t
1x
1r
1p
0a
0l
1f
0%!
1&!
1$!
0m
0S
01
#60000
1!
1,
1/
0)
1%
1"
1(
0$
1-
0*
0+
05
0'
1M
1K
1J
0I
0H
0G
1F
0E
1C
0B
1@
1?
0R
0V
1`
1^
0]
1i
0j
1h
0c
0d
0e
1b
1[
1W
0!!
0~
0w
1u
1v
1t
0{
1y
0x
1s
0r
0p
1|
1a
0f
1%!
0$!
#62000
0!
0/
1)
0"
1$
0-
1*
00
1&
0#
0N
0M
0K
1H
1G
1D
1B
0A
0@
0?
0`
0^
0_
1]
1k
1c
1d
0[
0W
0Z
1#!
1!!
1~
0v
0t
0z
0s
1q
1r
1p
0a
1l
1f
0%!
0&!
1$!
1m
1S
11
#64000
0)
1"
0*
10
1#
1+
1'
1.
1N
1L
1I
0H
0G
1E
1A
1@
1^
1_
1j
0c
0d
1e
1Y
1Z
0#!
0"!
0u
1v
1t
0y
0q
0r
1a
0f
1\
0'!
1%!
0$!
#66000
1)
0"
00
0#
0+
0.
0&
0,
0(
0N
0L
0J
0I
1G
0F
0D
0A
0@
0^
0_
0k
0h
1c
0e
0b
0Y
0Z
1#!
1"!
1w
1u
0t
1{
1z
1q
1r
0a
0l
0\
1'!
1&!
1$!
0m
0S
01
#68000
0)
1"
1+
1&
1,
1*
0'
1!
1J
1I
1H
0G
0E
1D
1@
1?
1`
1^
1k
0j
0c
1d
1e
1b
0w
0u
0v
1t
1y
0z
0r
0p
1a
1l
1f
0%!
0&!
0$!
1m
1S
11
#70000
0"
0&
1'
0!
1E
0D
0@
0?
0`
0^
0k
1j
0y
1z
1r
1p
0a
0l
1&!
1$!
0m
0S
01
#72000
1&
0'
1)
0+
0,
0*
1#
1/
0%
1M
0J
0I
0H
1G
0E
1D
0C
1A
1_
0i
1k
0j
1c
0d
0e
0b
1W
0!!
1w
1u
1v
0t
1y
0z
1x
0q
1l
0f
1%!
0&!
1m
1S
11
#74000
0&
0)
1+
0#
0/
1!
1(
0M
1I
0G
1F
0D
0A
1?
1`
0_
0k
1h
0c
1e
0W
1!!
0u
1t
0{
1z
1q
0p
0l
1&!
0m
0S
01
#76000
1)
0+
0(
1'
1"
10
0$
1N
0I
1G
0F
1E
0B
1@
1^
0]
1j
0h
1c
0e
1Z
0#!
1u
0t
1{
0y
1s
0r
1a
0$!
#78000
1+
1(
00
1$
1&
0!
1-
0N
1K
1I
1F
1D
1B
0?
0`
1]
1k
1h
1e
1[
0Z
1#!
0~
0u
0{
0z
0s
1p
1l
0&!
1m
1S
11
#80000
0$
1!
0-
0)
0'
1/
1,
1*
1.
15
04
1M
1L
0K
1J
1H
0G
0E
0B
1?
1R
0Q
0X
1V
1`
0]
0j
0c
1d
1b
0[
1Y
1W
0!!
0"!
1~
0w
0v
1t
1y
1s
0p
0|
1}
0a
0l
1f
1\
0'!
0%!
1&!
1$!
0m
0S
01
#82000
0!
1-
1'
0+
1#
1%
1K
0I
1E
1C
1A
0?
0`
1_
1i
1j
0e
1[
0~
1u
0y
0x
0q
1p
1a
1l
0f
1%!
0&!
0$!
1m
1S
11
#84000
0-
0'
0#
0%
1$
0,
10
0&
0"
1N
0K
0J
0E
0D
0C
1B
0A
0@
0^
0_
1]
0i
0k
0j
0b
0[
1Z
0#!
1~
1w
1y
1z
1x
0s
1q
1r
0a
0l
1&!
1$!
0m
0S
01
#86000
1'
1%
1,
00
1&
1"
0N
1J
1E
1D
1C
1@
1^
1i
1k
1j
1b
0Z
1#!
0w
0y
0z
0x
0r
1l
0&!
1m
1S
11
#88000
0'
0,
0&
1-
1#
0/
0.
0M
0L
1K
0J
0E
0D
1A
1_
0k
0j
0b
1[
0Y
0W
1!!
1"!
0~
1w
1y
1z
0q
1a
0l
0\
1'!
1&!
0$!
0m
0S
01
#90000
1'
1,
1&
0#
0%
10
1!
1+
0*
05
1N
1J
1I
0H
1E
1D
0C
0A
1?
0R
0V
1`
0_
0i
1k
1j
0d
1e
1b
1Z
0#!
0w
0u
1v
0y
0z
1x
1q
0p
1|
1l
1f
1\
0'!
0%!
0&!
1m
1S
11
#92000
0'
0,
0&
1#
0-
1/
1.
1M
1L
0K
0J
0E
0D
1A
1_
0k
0j
0b
0[
1Y
1W
0!!
0"!
1~
1w
1y
1z
0q
0f
1%!
#94000
1,
0/
00
0+
1*
0"
0$
0N
0M
1J
0I
1H
0B
0@
0^
0]
1d
0e
1b
0W
0Z
1#!
1!!
0w
1u
0v
1s
1r
0a
1f
0\
1'!
0%!
1$!
#96000
10
0*
1"
1'
0#
0.
0!
1)
0(
1N
0L
0H
1G
0F
1E
0A
1@
0?
0`
1^
0_
1j
0h
1c
0d
0Y
1Z
0#!
1"!
1v
0t
1{
0y
1q
0r
1p
0l
1\
0'!
1&!
0m
0S
01
#98000
0"
0'
1.
1!
1(
0,
1+
1L
0J
1I
1F
0E
0@
1?
1`
0^
0j
1h
1e
0b
1Y
0"!
1w
0u
0{
1y
1r
0p
1l
0f
1%!
0&!
1m
1S
11
#100000
1"
1'
0.
0!
0(
0+
1*
0)
1/
1&
1%
15
14
13
02
1M
0L
0I
1H
0G
0F
1E
1D
1C
1@
0?
1R
1Q
1P
0O
0g
1U
1X
1V
0`
1^
1i
1k
1j
0h
0c
1d
0e
0Y
1W
0!!
1"!
1u
0v
1t
1{
0y
0z
0x
0r
1p
0|
0}
0n
1o
0m
0\
1'!
0S
01
#102000
1.
1!
1)
0/
0&
1,
00
1#
1$
1-
0N
0M
1L
1K
1J
1G
0D
1B
1A
1?
1`
1_
1]
0k
1c
1b
1[
1Y
0W
0Z
1#!
1!!
0"!
0~
0w
0t
1z
0s
0q
0p
1a
1f
1\
0'!
0%!
0$!
1m
1S
11
#104000
0!
1&
10
0"
0'
1+
0*
1N
1I
0H
0E
1D
0@
0?
0`
0^
1k
0j
0d
1e
1Z
0#!
0u
1v
1y
0z
1r
1p
0a
1$!
#106000
1!
00
1'
1*
0)
0,
0$
0N
0J
1H
0G
1E
0B
1?
1`
0]
1j
0c
1d
0b
0Z
1#!
1w
0v
1t
0y
1s
0p
1a
0f
1%!
0$!
0m
0S
01
#108000
0!
0+
0.
1/
0#
0-
1(
1M
0L
0K
0I
1F
0A
0?
0`
0_
1h
0e
0[
0Y
1W
0!!
1"!
1~
1u
0{
1q
1p
0a
0\
1'!
1$!
#110000
1#
0(
0'
1)
1$
0%
05
1G
0F
0E
0C
1B
1A
0R
0V
1_
1]
0i
0j
0h
1c
0t
1{
1y
1x
0s
0q
1|
1f
0%!
1m
1S
11
#112000
1(
1%
1!
1.
1,
0&
1L
1J
1F
0D
1C
1?
1`
1i
0k
1h
1b
1Y
0"!
0w
0{
1z
0x
0p
0l
1\
0'!
1&!
#114000
0(
0%
0!
0.
0,
1&
1'
0)
1+
0/
1-
10
0*
1"
1N
0M
0L
1K
0J
1I
0H
0G
0F
1E
1D
0C
1@
0?
0`
1^
0i
1k
1j
0h
0c
0d
1e
0b
1[
0Y
0W
1Z
0#!
1!!
1"!
0~
1w
0u
1v
1t
1{
0y
0z
1x
0r
1p
1a
1l
0f
0\
1'!
1%!
0&!
0$!
0m
0S
01
#116000
1(
1%
1.
1,
1)
0+
1/
00
1*
0N
1M
1L
1J
0I
1H
1G
1F
1C
1i
1h
1c
1d
0e
1b
1Y
1W
0Z
1#!
0!!
0"!
0w
1u
0v
0t
0{
0x
1f
1\
0'!
0%!
1m
1S
11
#118000
0%
0,
0/
1!
0&
0'
0-
0#
0M
0K
0J
0E
0D
0C
0A
1?
1`
0_
0i
0k
0j
0b
0[
0W
1!!
1~
1w
1y
1z
1x
1q
0p
0l
1&!
#120000
1%
1/
0!
0.
0"
15
04
1M
0L
1C
0@
0?
1R
0Q
0X
1V
0`
0^
1i
0Y
1W
0!!
1"!
0x
1r
1p
0|
1}
0f
0a
1$!
1%!
0m
0S
01
#122000
0%
1.
1,
0(
0*
1L
1J
0H
0F
0C
0i
0h
0d
1b
1Y
0"!
0w
1v
1{
1x
#124000
1%
0.
1(
1*
1&
0)
10
1N
0L
1H
0G
1F
1D
1C
1i
1k
1h
0c
1d
0Y
1Z
0#!
1"!
0v
1t
0{
0z
0x
#126000
0(
0*
0&
1)
00
0/
1!
1'
1#
1+
0N
0M
1I
0H
1G
0F
1E
0D
1A
1?
1`
1_
0k
1j
0h
1c
0d
1e
0W
0Z
1#!
1!!
0u
1v
0t
1{
0y
1z
0q
0p
1a
1l
1f
0\
1'!
0%!
0&!
0$!
1m
1S
11
#128000
1/
0!
0%
1.
0,
1-
1M
1L
1K
0J
0C
0?
0`
0i
0b
1[
1Y
1W
0!!
0"!
0~
1w
1x
1p
1\
0'!
#130000
1!
1(
0)
0G
1F
1?
1`
1h
0c
1t
0{
0p
#132000
0!
0(
1%
1,
0-
10
0'
0#
0+
1"
0$
1N
0K
1J
0I
0F
0E
1C
0B
0A
1@
0?
0`
1^
0_
0]
1i
0j
0h
0e
1b
0[
1Z
0#!
1~
0w
1u
1{
1y
0x
1s
1q
0r
1p
0a
0l
0f
1%!
1&!
1$!
0m
0S
01
#134000
1!
0%
1-
00
1'
1+
0"
1)
1*
1&
0N
1K
1I
1H
1G
1E
1D
0C
0@
1?
1`
0^
0i
1k
1j
1c
1d
1e
1[
0Z
1#!
0~
0u
0v
0t
0y
0z
1x
1r
0p
1l
1f
0%!
0&!
1m
1S
11
#136000
0!
1%
0-
0'
0+
1"
0*
0&
0,
0/
0.
0M
0L
0K
0J
0I
0H
0E
0D
1C
1@
0?
0`
1^
1i
0k
0j
0d
0e
0b
0[
0Y
0W
1!!
1"!
1~
1w
1u
1v
1y
1z
0x
0r
1p
0l
0f
0\
1'!
1%!
1&!
0m
0S
01
#138000
1!
1-
0"
1*
1,
1#
1$
1K
1J
1H
1B
1A
0@
1?
1`
0^
1_
1]
1d
1b
1[
0~
0w
0v
0s
0q
1r
0p
1a
0$!
#140000
0!
0#
0%
1+
1&
1.
10
05
1N
1L
1I
1D
0C
0A
0?
0R
0V
0`
0_
0i
1k
1e
1Y
1Z
0#!
0"!
0u
0z
1x
1q
1p
1|
1f
1\
0'!
0%!
1m
1S
11
#142000
1!
1#
1%
0+
00
0-
1"
0*
1/
1(
0N
1M
0K
0I
0H
1F
1C
1A
1@
1?
1`
1^
1_
1i
1h
0d
0e
0[
1W
0Z
1#!
0!!
1~
1u
1v
0{
0x
0q
0r
0p
1l
0\
1'!
0&!
#144000
0#
1+
0"
0/
0,
0$
0M
0J
1I
0B
0A
0@
0^
0_
0]
1e
0b
0W
1!!
1w
0u
1s
1q
1r
0a
0f
1%!
1$!
0m
0S
01
#146000
1#
1"
1/
1,
0!
1*
0.
1M
0L
1J
1H
1A
1@
0?
0`
1^
1_
1d
1b
0Y
1W
0!!
1"!
0w
0v
0q
0r
1p
1f
0%!
1m
1S
11
#148000
0*
1.
0+
1$
1-
0&
1'
0)
1L
1K
0I
0H
0G
1E
0D
1B
1]
0k
1j
0c
0d
0e
1[
1Y
0"!
0~
1u
1v
1t
0y
1z
0s
1a
0$!
#150000
0.
0-
0#
1!
0%
10
0(
15
14
03
1N
0L
0K
0F
0C
0A
1?
1R
1Q
0P
0U
1X
1V
1`
0_
0i
0h
0[
0Y
1Z
0#!
1"!
1~
1{
1x
1q
0p
0|
0}
1n
0m
0f
0l
1&!
1%!
0S
01
#152000
1-
1#
1%
1*
1+
1&
0'
1)
0"
1K
1I
1H
1G
0E
1D
1C
1A
0@
0^
1_
1i
1k
0j
1c
1d
1e
1[
0~
0u
0v
0t
1y
0z
0x
0q
1r
1l
1f
1\
0'!
0%!
0&!
1m
1S
11
#154000
0%
0*
0+
0&
0)
1"
1.
0!
0$
0,
1L
0J
0I
0H
0G
0D
0C
0B
1@
0?
0`
1^
0]
0i
0k
0c
0d
0e
0b
1Y
0"!
1w
1u
1v
1t
1z
1x
1s
0r
1p
0a
0l
0f
1%!
1&!
1$!
#156000
1%
0#
1'
0/
0M
1E
1C
0A
0_
1i
1j
0W
1!!
0y
0x
1q
1l
0&!
#158000
1#
1/
0"
1!
1$
1,
0-
00
0N
1M
0K
1J
1B
1A
0@
1?
1`
0^
1_
1]
1b
0[
1W
0Z
1#!
0!!
1~
0w
0s
0q
1r
0p
1a
0\
1'!
0$!
0m
0S
01
#160000
0#
1"
0$
0,
1-
10
1*
1+
1&
1)
1(
05
1N
1K
0J
1I
1H
1G
1F
1D
0B
0A
1@
0R
0V
1^
0_
0]
1k
1h
1c
1d
1e
0b
1[
1Z
0#!
0~
1w
0u
0v
0t
0{
0z
1s
1q
0r
1|
1f
1\
0'!
0%!
1m
1S
11
#162000
0"
1$
1,
0-
0*
0+
0&
0)
0/
0%
0M
0K
1J
0I
0H
0G
0D
0C
1B
0@
0^
1]
0i
0k
0c
0d
0e
1b
0[
0W
1!!
1~
0w
1u
1v
1t
1z
1x
0s
1r
0a
0l
0f
1%!
1&!
1$!
#164000
0$
0,
1*
1+
1&
1/
1%
1#
0!
0.
1M
0L
0J
1I
1H
1D
1C
0B
1A
0?
0`
1_
0]
1i
1k
1d
1e
0b
0Y
1W
0!!
1"!
1w
0u
0v
0z
0x
1s
0q
1p
1l
1f
0\
1'!
0%!
0&!
0m
0S
01
#166000
1$
1,
0/
0%
1!
00
0(
0N
0M
1J
0F
0C
1B
1?
1`
1]
0i
0h
1b
0W
0Z
1#!
1!!
0w
1{
1x
0s
0p
#168000
0$
1/
10
0*
0+
0&
0#
1.
1"
0'
1N
1M
1L
0I
0H
0E
0D
0B
0A
1@
1^
0_
0]
0k
0j
0d
0e
1Y
1W
1Z
0#!
0!!
0"!
1u
1v
1y
1z
1s
1q
0r
1a
0l
0f
1\
0'!
1%!
1&!
0$!
1m
1S
11
#170000
1$
00
1+
1#
0.
0"
1(
1)
0N
0L
1I
1G
1F
1B
1A
0@
0^
1_
1]
1h
1c
1e
0Y
0Z
1#!
1"!
0u
0t
0{
0s
0q
1r
0a
0\
1'!
1$!
0m
0S
01
#172000
0$
10
0#
1.
0/
1'
0,
0!
1N
0M
1L
0J
1E
0B
0A
0?
0`
0_
0]
1j
0b
1Y
0W
1Z
0#!
1!!
0"!
1w
0y
1s
1q
1p
1\
0'!
1m
1S
11
#174000
1,
1!
0+
0(
0)
1*
1&
1J
0I
1H
0G
0F
1D
1?
1`
1k
0h
0c
1d
0e
1b
0w
1u
0v
1t
1{
0z
0p
1l
1f
0%!
0&!
#176000
0,
1(
0&
1/
1"
1%
1-
1M
1K
0J
1F
0D
1C
1@
1^
1i
0k
1h
0b
1[
1W
0!!
0~
1w
0{
1z
0x
0r
1a
0l
1&!
0$!
#178000
1&
0/
0"
1$
1#
0.
0'
0M
0L
0E
1D
1B
1A
0@
0^
1_
1]
1k
0j
0Y
0W
1!!
1"!
1y
0z
0s
0q
1r
0a
1l
0\
1'!
0&!
1$!
0m
0S
01
#180000
0$
0#
1,
0%
0-
0!
1)
15
04
0K
1J
1G
0C
0B
0A
0?
1R
0Q
0X
1V
0`
0_
0]
0i
1c
1b
0[
1~
0w
0t
1x
1s
1q
1p
0|
1}
0l
0f
1%!
1&!
#182000
1%
1/
1"
1+
0*
00
0N
1M
1I
0H
1C
1@
1^
1i
0d
1e
1W
0Z
1#!
0!!
0u
1v
0x
0r
1f
1\
0'!
0%!
1m
1S
11
#184000
0%
0/
0"
0+
1*
10
1$
0&
1.
1N
0M
1L
0I
1H
0D
0C
1B
0@
0^
1]
0i
0k
1d
0e
1Y
0W
1Z
0#!
1!!
0"!
1u
0v
1z
1x
0s
1r
0f
0\
1'!
1%!
0m
0S
01
#186000
1%
1+
0*
00
0$
1&
1#
1-
1'
0N
1K
1I
0H
1E
1D
1C
0B
1A
1_
0]
1i
1k
1j
0d
1e
1[
0Z
1#!
0~
0u
1v
0y
0z
0x
1s
0q
1a
1l
1f
0%!
0&!
0$!
#188000
0&
0-
0,
0K
0J
0D
0k
0b
0[
1~
1w
1z
#190000
1&
1-
0+
10
0#
0'
1/
1"
0.
05
1N
1M
0L
1K
0I
0E
1D
0A
1@
0R
0V
1^
0_
1k
0j
0e
1[
0Y
1W
1Z
0#!
0!!
1"!
0~
1u
1y
0z
1q
0r
1|
0a
0f
1\
0'!
1%!
1$!
1m
1S
11
#192000
0&
1+
00
1'
0/
1.
0(
0N
0M
1L
1I
0F
1E
0D
0k
1j
0h
1e
1Y
0W
0Z
1#!
1!!
0"!
0u
1{
0y
1z
0l
0\
1'!
1&!
0m
0S
01
#194000
10
1/
0.
1#
0"
0%
1$
1!
1N
1M
0L
0C
1B
1A
0@
1?
1`
0^
1_
1]
0i
0Y
1W
1Z
0#!
0!!
1"!
1x
0s
0q
1r
0p
1a
1\
0'!
0$!
1m
1S
11
#196000
0/
1"
1%
0$
0+
0'
1,
0M
1J
0I
0E
1C
0B
1@
1^
0]
1i
0j
0e
1b
0W
1!!
0w
1u
1y
0x
1s
0r
0a
1f
0%!
1$!
#198000
1/
0%
00
1.
0#
0!
1&
0N
1M
1L
1D
0C
0A
0?
0`
0_
0i
1k
1Y
1W
0Z
1#!
0!!
0"!
0z
1x
1q
1p
0\
1'!
0m
0S
01
