lab4/Project/simulation/qsim/lab4.msim.vcd
$comment
	File created using the following command:
		vcd file lab4.msim.vcd -direction
$end
$date
	Mon Mar 26 20:25:42 2018
$end
$version
	ModelSim Version 10.5b
$end
$timescale
	1ps
$end

$scope module ripple_carry_vhd_vec_tst $end
$var wire 1 ! cin $end
$var wire 1 " cout $end
$var wire 1 # overflow $end
$var wire 1 $ r [3] $end
$var wire 1 % r [2] $end
$var wire 1 & r [1] $end
$var wire 1 ' r [0] $end
$var wire 1 ( x [3] $end
$var wire 1 ) x [2] $end
$var wire 1 * x [1] $end
$var wire 1 + x [0] $end
$var wire 1 , y [3] $end
$var wire 1 - y [2] $end
$var wire 1 . y [1] $end
$var wire 1 / y [0] $end

$scope module i1 $end
$var wire 1 0 gnd $end
$var wire 1 1 vcc $end
$var wire 1 2 unknown $end
$var wire 1 3 devoe $end
$var wire 1 4 devclrn $end
$var wire 1 5 devpor $end
$var wire 1 6 ww_devoe $end
$var wire 1 7 ww_devclrn $end
$var wire 1 8 ww_devpor $end
$var wire 1 9 ww_x [3] $end
$var wire 1 : ww_x [2] $end
$var wire 1 ; ww_x [1] $end
$var wire 1 < ww_x [0] $end
$var wire 1 = ww_y [3] $end
$var wire 1 > ww_y [2] $end
$var wire 1 ? ww_y [1] $end
$var wire 1 @ ww_y [0] $end
$var wire 1 A ww_r [3] $end
$var wire 1 B ww_r [2] $end
$var wire 1 C ww_r [1] $end
$var wire 1 D ww_r [0] $end
$var wire 1 E ww_cin $end
$var wire 1 F ww_cout $end
$var wire 1 G ww_overflow $end
$var wire 1 H \~QUARTUS_CREATED_GND~I_combout\ $end
$var wire 1 I \cin~input_o\ $end
$var wire 1 J \x[0]~input_o\ $end
$var wire 1 K \y[0]~input_o\ $end
$var wire 1 L \G1:0:adder|r~combout\ $end
$var wire 1 M \x[1]~input_o\ $end
$var wire 1 N \y[1]~input_o\ $end
$var wire 1 O \G1:1:adder|r~combout\ $end
$var wire 1 P \x[2]~input_o\ $end
$var wire 1 Q \G1:1:adder|cout~0_combout\ $end
$var wire 1 R \y[2]~input_o\ $end
$var wire 1 S \G1:2:adder|r~combout\ $end
$var wire 1 T \y[3]~input_o\ $end
$var wire 1 U \x[3]~input_o\ $end
$var wire 1 V \G1:3:adder|r~combout\ $end
$var wire 1 W \G1:3:adder|cout~0_combout\ $end
$var wire 1 X \overflow~0_combout\ $end
$var wire 1 Y \ALT_INV_y[3]~input_o\ $end
$var wire 1 Z \ALT_INV_x[3]~input_o\ $end
$var wire 1 [ \ALT_INV_y[2]~input_o\ $end
$var wire 1 \ \ALT_INV_x[2]~input_o\ $end
$var wire 1 ] \ALT_INV_y[1]~input_o\ $end
$var wire 1 ^ \ALT_INV_x[1]~input_o\ $end
$var wire 1 _ \ALT_INV_cin~input_o\ $end
$var wire 1 ` \ALT_INV_y[0]~input_o\ $end
$var wire 1 a \ALT_INV_x[0]~input_o\ $end
$var wire 1 b \G1:1:adder|ALT_INV_cout~0_combout\ $end
$upscope $end
$upscope $end
$enddefinitions $end
#0
$dumpvars
1!
0"
0#
00
11
x2
13
14
15
16
17
18
1E
0F
0G
xH
1I
0J
1K
0L
0M
0N
1O
0P
0Q
0R
0S
0T
0U
0V
0W
0X
1Y
1Z
1[
1\
1]
1^
0_
0`
1a
1b
0(
0)
0*
0+
0,
0-
0.
1/
09
0:
0;
0<
0=
0>
0?
1@
0A
0B
1C
0D
0$
0%
1&
0'
$end
#10000
0/
0@
0K
1`
1L
0O
0C
1D
1'
0&
#20000
1.
1(
1)
1?
1:
19
1U
1P
1N
0]
0\
0Z
1S
1V
1O
1C
1A
1B
1&
1%
1$
#30000
0.
0(
1-
0?
1>
09
0U
1R
0N
1]
0[
1Z
0S
1X
0O
0C
1G
0B
0&
0%
1#
#40000
1.
0-
0)
0!
1,
1+
1?
0>
1=
1<
0:
0E
0I
0P
1J
1T
0R
1N
0]
1[
0Y
0a
1\
1_
0X
1O
1C
0G
1&
0#
#50000
1-
1)
1!
0,
1(
1*
1>
0=
1;
1:
19
1E
1I
1U
1P
1M
0T
1R
0[
1Y
0^
0\
0Z
0_
0L
1Q
0V
1W
0b
1S
1F
0A
0D
1"
0'
0$
1B
1%
#60000
0!
1,
0*
0.
0+
1/
0E
1@
0?
1=
0<
0;
0M
0J
1T
0N
1K
0I
1_
0`
1]
0Y
1a
1^
1V
1L
0O
0Q
1b
0S
0C
1D
1A
1'
0&
1$
0B
0%
#70000
1!
1+
0/
1E
1<
0@
0K
1J
1I
0_
0a
1`
0L
1O
1C
0D
0'
1&
#80000
0+
1*
1.
0-
0)
0<
1;
0:
1?
0>
0R
1N
0P
1M
0J
1a
0^
1\
0]
1[
0V
1X
1L
0O
1Q
0b
1S
0C
1D
1G
0A
1'
0&
0$
1#
1B
1%
#90000
0*
1-
1)
0!
1/
0,
0(
0;
1:
09
1@
1>
0=
0E
0I
0T
1R
1K
0U
1P
0M
1^
0\
1Z
0`
0[
1Y
1_
1V
0W
1O
0Q
1b
0S
1C
0F
1A
1&
1$
0"
0B
0%
#100000
0-
1,
1+
0>
1=
1<
1J
1T
0R
1[
0Y
0a
0L
0O
1Q
1S
0X
0b
0S
0V
1W
0G
1B
0C
0D
0#
0'
0&
1%
1F
0A
0B
1"
0%
0$
#110000
1-
0,
0+
1*
1!
0/
1(
0.
0@
0?
1>
0=
0<
1;
19
1E
1I
1U
1M
0J
0T
1R
0N
0K
1`
1]
0[
1Y
1a
0^
0Z
0_
1S
1L
1O
0Q
1b
0S
1C
1D
1B
1'
1&
1%
0B
0%
#120000
1+
0!
0(
1<
09
0E
0I
0U
1J
0a
1Z
1_
1V
0W
1X
1G
0F
1A
1#
0"
1$
#130000
0+
1(
1,
0)
0<
0:
19
1=
1T
1U
0P
0J
1a
1\
0Z
0Y
1S
0V
1W
0L
0D
1F
0A
1B
0'
1%
0$
1"
#140000
1+
0(
0*
1/
1.
1<
0;
09
1@
1?
1N
1K
0U
0M
1J
0a
1^
1Z
0`
0]
1V
0W
0X
0O
1Q
0b
0S
0V
1W
0C
0G
0F
1A
0&
1$
0#
0"
1F
0A
0B
1"
0%
0$
#150000
0+
0.
0,
1!
0-
0<
0?
0>
0=
1E
1I
0T
0R
0N
0J
1a
1]
1[
1Y
0_
1S
0W
1O
0Q
1b
0S
1C
0F
1B
1&
1%
0"
0B
0%
#160000
1+
1.
1,
0!
1-
1(
1*
1)
1<
1;
1:
19
1?
1>
1=
0E
0I
1T
1R
1N
1U
1P
1M
1J
0a
0^
0\
0Z
0]
0[
0Y
1_
1V
1W
1Q
0b
1S
1F
1A
1"
1$
1B
1%
#170000
0.
1!
0-
0(
0?
0>
1E
09
0U
1I
0R
0N
1]
1[
0_
1Z
1L
0S
0V
0O
0C
0A
0B
1D
1'
0&
0%
0$
#180000
1-
1(
0+
0)
0/
0@
1>
0<
0:
19
1U
0P
0J
1R
0K
1`
0[
1a
1\
0Z
1V
1O
0Q
1b
1S
0V
1X
1C
1A
1&
1$
1G
0A
1B
1#
1%
0$
#190000
1+
1)
1/
0,
1<
1:
1@
0=
0T
1K
1P
1J
0a
0\
0`
1Y
0S
0X
0O
1Q
0b
1S
0C
0G
0B
0&
0%
0#
1B
1%
